…
```r
devtools::install_github("sckott/openadds")
```


```r
library("openadds")
```

## List datasets


```r
(dat <- oa_list())
#> # A tibble: 2,384 x 16
#>    source cache sample `geometry type` `address count` version fingerprint
#>    <chr>  <chr> <chr>  <chr>                     <int> <chr>   <chr>      
#>  1 ae/du… http… http:… Point                    127655 <NA>    880f5b19a9…
#>  2 ae/du… http… http:… Point                    128058 <NA>    7aabcea765…
#>  3 ar/c/… http… http:… <NA>                     555755 <NA>    e76afd805a…
#>  4 ar/m/… http… http:… Polygon                   30870 <NA>    0e82a5cb0d…
#>  5 at/31… http… http:… <NA>                     218885 <NA>    f06a9cd175…
#>  6 at/31… http… http:… <NA>                     910854 <NA>    f06a9cd175…
#>  7 at/31… http… http:… <NA>                    1201531 <NA>    f06a9cd175…
#>  8 at/ci… http… http:… <NA>                     282313 <NA>    00d6d62202…
#>  9 at/ti… http… http:… Unknown                  194136 <NA>    9a8bb12e58…
#> 10 au/ac… http… http:… Point                    211142 <NA>    f76401eec0…
#> # ... with 2,374 more rows, and 9 more variables: `cache time` <time>,
#> #   processed <chr>, `process time` <time>, `process hash` <chr>,
#> #   output <chr>, `attribution required` <chr>, `attribution name` <chr>,
#> #   `share-alike` <chr>, `code version` <chr>
```

## Search for datasets


```r
oa_search(country = "us", state = "ca")
#> # A tibble: 86 x 5
#>    country state city          id    url                                  
#>  * <chr>   <chr> <chr>         <chr> <chr>                                
#>  1 us      ca    alameda       ""    http://data.openaddresses.io/runs/52…
#>  2 us      ca    amador        ""    http://data.openaddresses.io/runs/52…
#>  3 us      ca    berkeley      ""    http://data.openaddresses.io/runs/52…
#>  4 us      ca    butte         ""    http://data.openaddresses.io/runs/52…
#>  5 us      ca    calaveras     ""    http://data.openaddresses.io/runs/52…
#>  6 us      ca    city_of_anah… ""    http://data.openaddresses.io/runs/52…
#>  7 us      ca    city_of_bake… ""    http://data.openaddresses.io/runs/52…
#>  8 us      ca    city_of_brea  ""    http://data.openaddresses.io/runs/52…
#>  9 us      ca    city_of_burb… ""    http://data.openaddresses.io/runs/52…
#> 10 us      ca    city_of_cars… ""    http://data.openaddresses.io/runs/52…
#> # ... with 76 more rows
```
…
